lang n size
eng 3 171576094856
eng 3 210455454333
eng 3 93246369026
eng 3 128701390734
eng 3 266550842807
eng 3 308835427937
eng 3 84601374944
eng 3 100422315655
eng 3 75633969145
eng 3 204762404593
eng 3 58526928855
eng 3 664622831
eng 3 34939437828
eng 3 57013206579
eng 3 106010806318
eng 3 1608642618
eng 3 25121689660
eng 3 27842260176
eng 3 975122713
eng 3 8122739577
eng 3 177951351
eng 3 474547822
eng 3 89391353250
eng 3 29157961617
eng 3 309547436629
eng 3 331850370
eng 3 37856455736
eng 3 684057557
eng 3 82494747544
eng 3 78167372979
eng 3 45751296384
eng 3 20491139406
eng 3 9425779764
eng 3 5914657817
eng 3 1520314896
eng 3 444007663
eng 3 493258825
eng 3 2220213686
eng 3 52156514188
eng 3 115210358
eng 3 486703878
eng 3 60668359
eng 3 153509086708
eng 3 35091600
eng 3 25827877
eng 3 480557972
eng 3 22109308688
eng 3 80614481
eng 3 20737925
eng 3 21215646227
eng 3 71217996
eng 3 1984605973
eng 3 52918019964
eng 3 94484518
eng 3 4274148
eng 3 47806261148
eng 3 110652893
eng 3 100042196
eng 3 60576767184
eng 3 139223167
eng 3 22515565
eng 3 381539157
eng 3 50516521431
eng 3 8019321
eng 3 3188192783
eng 3 114856499952
eng 3 179707835
eng 3 321092443
eng 3 294983662
eng 3 31933502408
eng 3 345698994
eng 3 63856498
eng 3 88206121500
eng 3 19402136847
eng 3 52119772
eng 3 26282246
eng 3 41585089249
eng 3 438117386
eng 3 2646365178
eng 3 330369372561
eng 3 268690051
eng 3 8971261
eng 3 38211076621
eng 3 237164367
eng 3 219016086
eng 3 24831407624
eng 3 170387784
eng 3 48753256
eng 3 452761142
eng 3 3893241995
eng 3 403808202
eng 3 2456365243
eng 3 35834269558
eng 3 124687133
eng 3 407031581
eng 3 147629552
eng 3 153784607958
eng 3 74290478
eng 3 37450756
eng 3 289297410
eng 3 117681071702
eng 3 85968645
eng 3 19656855
eng 3 106339261
eng 3 143758401
eng 3 2053802947
eng 3 45002310500
eng 3 89248433
eng 3 9975906
eng 3 28346421337
eng 3 125799665
eng 3 102800644
eng 3 17950059583
eng 3 520780331
eng 3 1210318322
eng 3 578584824
eng 3 2926942000
eng 3 30391603
eng 3 2048114584
eng 3 28547699515
eng 3 407864074
eng 3 8041366379
eng 3 12210942444
eng 3 508489151
eng 3 12210541955
eng 3 3938480702
eng 3 171322624
eng 3 8728803065
eng 3 313139297
eng 3 115835879
eng 3 24726497467
eng 3 22957147873
eng 3 64749550363
eng 3 367731314
eng 3 4208580988
eng 3 8938192254
eng 3 7151439948
eng 3 21455946088
eng 3 8454683828
eng 3 5045560837
eng 3 39106691083
eng 3 197604290
eng 3 93177462478
eng 3 4034696664
eng 3 175661754
eng 3 1761241493
eng 3 62988522924
eng 3 110669059
eng 3 160587394
eng 3 135879132
eng 3 37114136572
eng 3 109265962
eng 3 29291500
eng 3 83921754
eng 3 71593862907
eng 3 55047240
eng 3 10961589
eng 3 23956294241
eng 3 101615557
eng 3 1415987600
eng 3 133196772062
eng 3 59860610
eng 3 4766762
eng 3 78278194769
eng 3 90446530
eng 3 569973385
eng 3 26407172107
eng 3 18148868
eng 3 24590114
eng 3 338919372
eng 3 83560691
eng 3 3822994
eng 3 1178646712
eng 3 24229620320
eng 3 38748949
eng 3 74480748
eng 3 122952462
eng 3 42114199573
eng 3 32768035
eng 3 19899686
eng 3 1035190745
eng 3 19598150417
eng 3 26025960
eng 3 13012364
eng 3 11719707009
eng 3 124980476
eng 3 1634268282
eng 3 39346957176
eng 3 97201795
eng 3 2797146
eng 3 64100229878
eng 3 69093921
eng 3 55861444
eng 3 12742711566
eng 3 57376866
eng 3 157826063
eng 3 45966685
eng 3 625595540
eng 3 3521025
eng 3 1675423285
eng 3 110039039554
eng 3 66145627
eng 3 154697106
eng 3 65679789
eng 3 102168103407
eng 3 43691387
eng 3 71901840
eng 3 33821142
eng 3 83637090926
eng 3 47271690
eng 3 22490986
eng 3 72083099
eng 3 149359759
eng 3 1646902912
eng 3 59063743506
eng 3 128791741
eng 3 18576330
eng 3 204286516
eng 3 205519037
eng 3 137768878
eng 3 20296806358
eng 3 70794376
eng 3 36526822
eng 3 65394616
eng 3 7485282581
eng 3 46109414
eng 3 9662070450
eng 3 971654583
eng 3 665119194
eng 3 1787112422
eng 3 10771031449
eng 3 1314630725
eng 3 13619070830
eng 3 2274371994
eng 3 344513989
eng 3 2941088220
eng 3 62882871
eng 3 132705898
eng 3 7342425406
eng 3 40743312644
eng 3 298464021570
eng 3 1764403655
eng 3 9090253458
eng 3 107138005
eng 3 8817494299
eng 3 56626513494
eng 3 54488493345
eng 3 235662181
eng 3 1407651019
eng 3 65046171
eng 3 539444154
eng 3 32762313
eng 3 112734133
eng 3 2143922708
eng 3 12041791456
eng 3 42003557
eng 3 82459797
eng 3 60020711
eng 3 9430332819
eng 3 55505908
eng 3 24428854
eng 3 95074174
eng 3 1071386088
eng 3 54695424
eng 3 16024690
eng 3 61477544
eng 3 64479353
eng 3 2306759024
eng 3 18585714018
eng 3 96494819
eng 3 3046577
eng 3 390057281
eng 3 68740789
eng 3 71178467
eng 3 21935038582
eng 3 92007560
eng 3 35061965
eng 3 35908373
eng 3 17806761
eng 3 2184881
eng 3 829292634
eng 3 5180213401
eng 3 62300793
eng 3 81716567
eng 3 44411102
eng 3 11804920952
eng 3 19761666
eng 3 170099387
eng 3 925230719
eng 3 17039227824
eng 3 42059716
eng 3 17115801
eng 3 659493901
eng 3 187134002
eng 3 15401398683
eng 3 2647748710
eng 3 48661276
eng 3 4495229
eng 3 1142067383
eng 3 74588199
eng 3 40258162
eng 3 1289539431
eng 3 77041775
eng 3 145319959
eng 3 27136806
eng 3 258778940
eng 3 2997052
eng 3 2728332643
eng 3 74652966749
eng 3 225246605
eng 3 105072242
eng 3 158272739
eng 3 68117963414
eng 3 96205708
eng 3 29101246
eng 3 101268269
eng 3 81401517048
eng 3 64640643
eng 3 19372911
eng 3 821092276
eng 3 82460350
eng 3 2014035057
eng 3 59600036992
eng 3 151066678
eng 3 6883791
eng 3 64076813
eng 3 157887206
eng 3 527189787
eng 3 8058100552
eng 3 187908799
eng 3 20604534
eng 3 488227263
eng 3 2732614310
eng 3 5162752
eng 3 2346787671
eng 3 153480971040
eng 3 130393963
eng 3 2443223325
eng 3 274162532
eng 3 85563369188
eng 3 62634023
eng 3 281362508
eng 3 89997301
eng 3 58154687898
eng 3 47995732
eng 3 41591667
eng 3 336226483
eng 3 470913314
eng 3 2319549674
eng 3 102453843892
eng 3 416954578
eng 3 9795089
eng 3 7040642031
eng 3 365510009
eng 3 146159895
eng 3 31363467801
eng 3 175560267
eng 3 58978124
eng 3 79176967
eng 3 18128484152
eng 3 11145552
eng 3 1578424571
eng 3 35974758665
eng 3 94838731
eng 3 287650071
eng 3 197853652
eng 3 63394475582
eng 3 66491719
eng 3 201475839
eng 3 120917249
eng 3 11120201403
eng 3 78016429
eng 3 55640722
eng 3 85645139
eng 3 168228196
eng 3 1189135096
eng 3 102365461324
eng 3 145007142
eng 3 6365655
eng 3 92383799
eng 3 204899016
eng 3 262346021
eng 3 16175238134
eng 3 38677195
eng 3 104018708
eng 3 55849834
eng 3 630250074
eng 3 16077247
eng 3 1139021217
eng 3 1823048434
eng 3 22926937271
eng 3 13082519711
eng 3 1586872049
eng 3 634038276
eng 3 219688996347
eng 3 308604176
eng 3 1034790288
eng 3 2018998934
eng 3 106669149
eng 3 466593595
eng 3 9839267311
eng 3 1733962859
eng 3 75045402585
eng 3 460002254
eng 3 23442358904
eng 3 9186924
eng 3 2476864895
eng 3 25128827750
eng 3 4566926298
eng 3 34260405519
eng 3 16835183743
eng 3 10555297334
eng 3 2655588265
eng 3 198324486
eng 3 157955980
eng 3 2326170573
eng 3 99791374137
eng 3 109001234
eng 3 264820069
eng 3 116123598
eng 3 77089246183
eng 3 183251542
eng 3 63807355
eng 3 21471434794
eng 3 19908492656
eng 3 38256037
eng 3 52138018
eng 3 43509944343
eng 3 389476917
eng 3 2338277388
eng 3 81458512824
eng 3 3254068115
eng 3 21121040
eng 3 198069361850
eng 3 4878361533
eng 3 391758483
eng 3 33711837438
eng 3 1029818800458
eng 3 179602693
eng 3 37129265
eng 3 342584815
eng 3 1258622967
eng 3 8161975
eng 3 334922045
eng 3 121862177
eng 3 13128823
eng 3 20563059
eng 3 11703439
eng 3 16081583
eng 3 16420149
eng 3 1651092
eng 3 2648410
eng 3 68810754
eng 3 5636165
eng 3 2072220
eng 3 11250718
eng 3 9258071
eng 3 233971639
eng 3 22111620
eng 3 19350552
eng 3 5455675
eng 3 28286157
eng 3 13829414
eng 3 22828685
eng 3 29836447767
eng 3 55664639
eng 3 7732229
eng 3 18882258
eng 3 1625393
eng 3 1132105
eng 3 1721844670
eng 3 43842869970
eng 3 68875114
eng 3 159995564
eng 3 104012989
eng 3 253080028293
eng 3 116314061
eng 3 55533393
eng 3 2596367022
eng 3 27723892735
eng 3 59947770
eng 3 27133244
eng 3 70644003
eng 3 101721228
eng 3 1791316923
eng 3 38499797907
eng 3 147597502
eng 3 8304078
eng 3 86033353
eng 3 179639941
eng 3 120230979
eng 3 18489916433
eng 3 129115974
eng 3 51667328
eng 3 50866234
eng 3 394119137
eng 3 8196079
eng 3 5719391208
eng 3 60974094091
eng 3 85521348
eng 3 38768932476
eng 3 149948490
eng 3 124638773535
eng 3 91543363
eng 3 47634051
eng 3 71554284757
eng 3 62595050635
eng 3 73816306
eng 3 6834293557
eng 3 15037060174
eng 3 14019756178
eng 3 5451622542
eng 3 98513122632
eng 3 58469006846
eng 3 3197239976
eng 3 330643313
eng 3 290029383
eng 3 138189181312
eng 3 109833965146
eng 3 486424547
eng 3 10180864401
eng 3 22503527
eng 3 16648730295
eng 3 107351446
eng 3 1684893137
eng 3 36456213553
eng 3 257703705
eng 3 229134680
eng 3 60123045
eng 3 55317379139
eng 3 77624993
eng 3 35622818
eng 3 696821908329
eng 3 30109625980
eng 3 63389889
eng 3 30898044
eng 3 316752988
eng 3 93869913
eng 3 1442940011
eng 3 149592168722
eng 3 540367382
eng 3 16753859
eng 3 75902227361
eng 3 529606207
eng 3 163627044
eng 3 14366511853
eng 3 321226491
eng 3 18364913081
eng 3 34982659
eng 3 7232163946
eng 3 68610099
eng 3 491232687
eng 3 138591298
eng 3 278900411
eng 3 118781641
eng 3 151727227
eng 3 88846326
eng 3 77767621
eng 3 443205794
eng 3 72916723
eng 3 97276007
eng 3 30690275
eng 3 389110356
eng 3 2787125757
eng 3 620965217
eng 3 77466070601
eng 3 41657914
eng 3 22047537790
eng 3 3042759
eng 3 4099694642
eng 3 30032114730
eng 3 4552319300
eng 3 22995721
eng 3 124877657
eng 3 13048112
eng 3 57763564
eng 3 13620666
eng 3 52772912
eng 3 2154413851
eng 3 29338520300
eng 3 30254499
eng 3 853365814
eng 3 43114338
eng 3 31310347396
eng 3 23436336
eng 3 17786998
eng 3 66151351
eng 3 35029216078
eng 3 17158394
eng 3 8515248
eng 3 190725383
eng 3 41775070
eng 3 1096782373
eng 3 14154256312
eng 3 81140984
eng 3 4531935
eng 3 139354197
eng 3 345926412
eng 3 85694941
eng 3 896471208
eng 3 106798921
eng 3 12941880
eng 3 43803930
eng 3 71056503
eng 3 12623767
eng 3 1313668395
eng 3 86379211430
eng 3 40930346
eng 3 114641830
eng 3 39369096
eng 3 69970394375
eng 3 27067369
eng 3 17184986
eng 3 127022698203
eng 3 110107039904
eng 3 30245399
eng 3 18923660
eng 3 68440120
eng 3 45039417
eng 3 1392633469
eng 3 56968372467
eng 3 73543918
eng 3 2795328
eng 3 13781189367
eng 3 48947177
eng 3 80002226
eng 3 304714048
eng 3 69369665
eng 3 85655664
eng 3 24180095
eng 3 469534338
eng 3 2839817
eng 3 940996005
eng 3 153263535
eng 3 6865345
eng 3 31663592
eng 3 8883953
eng 3 220075565
eng 3 6339280
eng 3 5511175
eng 3 20294732
eng 3 766731472
eng 3 11504077
eng 3 5971235
eng 3 155346847
eng 3 42316493
eng 3 843477783
eng 3 39528898
eng 3 25828408
eng 3 4308001
eng 3 20630653
eng 3 13385944
eng 3 33766722
eng 3 30385173
eng 3 418312104
eng 3 1516119
eng 3 724070078
eng 3 108364638
eng 3 3448580
eng 3 777611100
eng 3 2499158846
eng 3 11347262
eng 3 17440884
eng 3 16902949
eng 3 18291359025
eng 3 11044071
eng 3 6900269
eng 3 14052716
eng 3 1926373768
eng 3 5800446
eng 3 6417452
eng 3 17071725
eng 3 38460908
eng 3 437597325
eng 3 33032670596
eng 3 130554774
eng 3 2072264
eng 3 44423295
eng 3 36112328
eng 3 44280178
eng 3 604145466
eng 3 142984282
eng 3 11675739
eng 3 187866256
eng 3 7142217
eng 3 5215081
eng 3 249609421
eng 3 875853899
eng 3 14227128
eng 3 5067131
eng 3 12736478
eng 3 2366311244
eng 3 3369903
eng 3 2868871
eng 3 134556590
eng 3 1056268482
eng 3 4613092
eng 3 2307137
eng 3 15771239
eng 3 6531662
eng 3 269014816
eng 3 1569202342
eng 3 10502447
eng 3 1632986
eng 3 15819228
eng 3 11935118
eng 3 7774045
eng 3 813919191
eng 3 27679538
eng 3 167104828
eng 3 14752341
eng 3 92581275
eng 3 5127005
eng 4 23927667
eng 4 25401099
eng 4 24449335
eng 4 24952039
eng 4 24131764
eng 4 28168650
eng 4 23322689
eng 4 25107955
eng 4 22937191
eng 4 28379850
eng 4 21841865291
eng 4 69907407
eng 4 7995596866
eng 4 11988913148
eng 4 41500233846
eng 4 127457980
eng 4 5597684332
eng 4 6057301904
eng 4 151624988
eng 4 1500460845
eng 4 9294376
eng 4 39964430
eng 4 21564173935
eng 4 6308902500
eng 4 112900602055
eng 4 29818278
eng 4 7760743396
eng 4 67140094
eng 4 23329267180
eng 4 24806929655
eng 4 13640101659
eng 4 3066311603
eng 4 1526554715
eng 4 1518930071
eng 4 206963612
eng 4 37002003
eng 4 32307172
eng 4 268786401
eng 4 8398205554
eng 4 6586621
eng 4 47973210
eng 4 2667908
eng 4 50256572739
eng 4 1401637
eng 4 883626
eng 4 21677708
eng 4 3056723573
eng 4 3693986
eng 4 974001
eng 4 3144000946
eng 4 3158683
eng 4 319570676
eng 4 9642925191
eng 4 4061841
eng 4 86589
eng 4 7840634998
eng 4 6623396
eng 4 5016995
eng 4 16142033810
eng 4 6005279
eng 4 821083
eng 4 83166967
eng 4 17479276432
eng 4 254289
eng 4 376362348
eng 4 23437951035
eng 4 11285949
eng 4 20427148
eng 4 22702428
eng 4 5720530611
eng 4 20292582
eng 4 3352618
eng 4 3438208744
eng 4 2801662
eng 4 1035702
eng 4 7234230366
eng 4 52998038
eng 4 452499512
eng 4 63077751734
eng 4 15121496
eng 4 304299
eng 4 5783424648
eng 4 12732360
eng 4 15553740
eng 4 3858947168
eng 4 13485607
eng 4 2133170
eng 4 68284340
eng 4 391712401
eng 4 36119559
eng 4 280881047
eng 4 6787611054
eng 4 8314354
eng 4 45656429
eng 4 11776174
eng 4 27899884276
eng 4 3554107
eng 4 1763807
eng 4 13815519
eng 4 21816483724
eng 4 4067612
eng 4 1004523
eng 4 10864453
eng 4 6323465
eng 4 327310902
eng 4 10936574059
eng 4 3816283
eng 4 354907
eng 4 4542604773
eng 4 7435503
eng 4 5081676
eng 4 3716018134
eng 4 73160229
eng 4 195275624
eng 4 80760933
eng 4 328494737
eng 4 1304837
eng 4 210644348
eng 4 6121434831
eng 4 28256770
eng 4 1447861995
eng 4 2244990518
eng 4 27655345
eng 4 2998589874
eng 4 552469091
eng 4 11482378
eng 4 1581394776
eng 4 25058095
eng 4 7523612
eng 4 3790862671
eng 4 3666168761
eng 4 12037189846
eng 4 16797200
eng 4 420923391
eng 4 1713819116
eng 4 906282062
eng 4 3905568200
eng 4 1024845749
eng 4 774007727
eng 4 9434607355
eng 4 13300600
eng 4 17673839135
eng 4 1026624924
eng 4 16065207
eng 4 188609357
eng 4 13012520133
eng 4 8703108
eng 4 7484150
eng 4 8961347
eng 4 7440175283
eng 4 4818500
eng 4 1381830
eng 4 2420310
eng 4 14420881164
eng 4 2550264
eng 4 339855
eng 4 3397641902
eng 4 4523162
eng 4 209176231
eng 4 37381400497
eng 4 1287664
eng 4 57997
eng 4 19745083285
eng 4 4574245
eng 4 53457136
eng 4 5079985390
eng 4 544307
eng 4 1157559
eng 4 27071133
eng 4 4129857
eng 4 114825
eng 4 132052293
eng 4 3689593047
eng 4 1630346
eng 4 3837327
eng 4 12998490
eng 4 7382513259
eng 4 1487331
eng 4 692580
eng 4 98503554
eng 4 4719069935
eng 4 1284579
eng 4 672332
eng 4 1620702206
eng 4 7173610
eng 4 233189946
eng 4 10084430716
eng 4 5007437
eng 4 42403
eng 4 12238369633
eng 4 3334844
eng 4 2381225
eng 4 1803673684
eng 4 3171133
eng 4 10331739
eng 4 5578063
eng 4 39309812
eng 4 71908
eng 4 188049553
eng 4 38647618170
eng 4 3136798
eng 4 8142800
eng 4 3490363
eng 4 33345869044
eng 4 1577369
eng 4 5536533
eng 4 1704544
eng 4 26556231496
eng 4 2406403
eng 4 1034736
eng 4 4535931
eng 4 10016539
eng 4 272082142
eng 4 12745107147
eng 4 6283008
eng 4 474864
eng 4 11636493
eng 4 10911757
eng 4 8042405
eng 4 3499648727
eng 4 2620125
eng 4 2090920
eng 4 8905297
eng 4 755484420
eng 4 5236248
eng 4 4097743602
eng 4 75547949
eng 4 66929581
eng 4 188081341
eng 4 2164631774
eng 4 191270449
eng 4 5361296860
eng 4 340053330
eng 4 9593733
eng 4 414481535
eng 4 1692292
eng 4 4259881
eng 4 1131035242
eng 4 7665906278
eng 4 84760862545
eng 4 195084136
eng 4 6598085945
eng 4 9639552
eng 4 1121127649
eng 4 29637137387
eng 4 23238794537
eng 4 11638507
eng 4 143980020
eng 4 2798483
eng 4 73879603
eng 4 936639
eng 4 4898327
eng 4 262854595
eng 4 1600696854
eng 4 2839641
eng 4 4303488
eng 4 3362594
eng 4 1369007519
eng 4 2345477
eng 4 1575337
eng 4 4341148
eng 4 78939183
eng 4 2315394
eng 4 933056
eng 4 2939784
eng 4 4394263
eng 4 408485458
eng 4 3051979690
eng 4 5253227
eng 4 76991
eng 4 60250953
eng 4 3224718
eng 4 2542556
eng 4 4625604817
eng 4 4039214
eng 4 2352438
eng 4 3347963
eng 4 576075
eng 4 56270
eng 4 84032685
eng 4 369643715
eng 4 3443616
eng 4 5410017
eng 4 2092518
eng 4 2047097805
eng 4 704548
eng 4 19721264
eng 4 65326497
eng 4 3464895047
eng 4 2768683
eng 4 553458
eng 4 45772879
eng 4 22773361
eng 4 4470738921
eng 4 187470874
eng 4 3082521
eng 4 118628
eng 4 71210301
eng 4 2970267
eng 4 1624402
eng 4 78231486
eng 4 3774565
eng 4 8201652
eng 4 3568556
eng 4 15897204
eng 4 64904
eng 4 253868446
eng 4 14054992209
eng 4 17208649
eng 4 3753439
eng 4 10157724
eng 4 13822594822
eng 4 9783134
eng 4 975595
eng 4 5520766
eng 4 17173168483
eng 4 3093944
eng 4 934789
eng 4 100316357
eng 4 2831320
eng 4 265341928
eng 4 12466816734
eng 4 14776694
eng 4 99776
eng 4 2483178
eng 4 6304452
eng 4 66290475
eng 4 847553320
eng 4 16425175
eng 4 787845
eng 4 56673191
eng 4 342417229
eng 4 110146
eng 4 250033302
eng 4 33119683957
eng 4 6690603
eng 4 181835623
eng 4 25245053
eng 4 17747771238
eng 4 4711926
eng 4 35240004
eng 4 6161957
eng 4 10304642298
eng 4 2773093
eng 4 2054816
eng 4 39677317
eng 4 57133044
eng 4 340374491
eng 4 22122752123
eng 4 35508407
eng 4 292957
eng 4 1000410709
eng 4 20671863
eng 4 5536542
eng 4 7772882498
eng 4 11967183
eng 4 2699401
eng 4 8938776
eng 4 4926256702
eng 4 567640
eng 4 161102164
eng 4 6633227405
eng 4 4938774
eng 4 22800440
eng 4 8727158
eng 4 13712702097
eng 4 2446253
eng 4 11953983
eng 4 7457321
eng 4 1691612352
eng 4 7838336
eng 4 3586187
eng 4 3530054
eng 4 16684569
eng 4 186555979
eng 4 32919592270
eng 4 8461952
eng 4 124127
eng 4 3356963
eng 4 9823144
eng 4 17336255
eng 4 3454466176
eng 4 1770791
eng 4 5431648
eng 4 6340765
eng 4 53687898
eng 4 728869
eng 4 106526922
eng 4 225029324
eng 4 4665959328
eng 4 2586657987
eng 4 175022086
eng 4 53567480
eng 4 109038659002
eng 4 16574322
eng 4 197818358
eng 4 323231332
eng 4 4896938
eng 4 48801772
eng 4 1678829987
eng 4 180047509
eng 4 26154166108
eng 4 23898097
eng 4 4790164469
eng 4 224558
eng 4 19918326225
eng 4 192026217
eng 4 6379197112
eng 4 402172875
eng 4 9039840352
eng 4 3355559190
eng 4 2588538447
eng 4 401956336
eng 4 15552389
eng 4 11876648
eng 4 340691604
eng 4 18284865230
eng 4 5690911
eng 4 16737720
eng 4 5523556
eng 4 14979562795
eng 4 8344937
eng 4 2989150
eng 4 3115661749
eng 4 2788593973
eng 4 2056040
eng 4 2324433
eng 4 8260203272
eng 4 40255304
eng 4 407671126
eng 4 16158920742
eng 4 552343347
eng 4 701436
eng 4 37364368975
eng 4 606982525
eng 4 27100848
eng 4 6785882640
eng 4 357633519264
eng 4 16639216
eng 4 1524214
eng 4 96388059
eng 4 90919684
eng 4 191082
eng 4 36469518
eng 4 5824160
eng 4 514677
eng 4 856023
eng 4 331387
eng 4 376971
eng 4 203958
eng 4 14074
eng 4 25642
eng 4 3195275
eng 4 116559
eng 4 17732
eng 4 340184
eng 4 144471
eng 4 32589804
eng 4 533905
eng 4 1776135
eng 4 261186
eng 4 2151757
eng 4 367632
eng 4 925015
eng 4 5500153420
eng 4 7472053
eng 4 204963
eng 4 2163742
eng 4 10293
eng 4 11151
eng 4 203657819
eng 4 7373612401
eng 4 3548074
eng 4 7287889
eng 4 5043886
eng 4 48968421010
eng 4 5548642
eng 4 3247381
eng 4 266266053
eng 4 5216450848
eng 4 3714609
eng 4 1414150
eng 4 3663222
eng 4 4962309
eng 4 306850551
eng 4 6126438903
eng 4 9053811
eng 4 184411
eng 4 3549926
eng 4 8871192
eng 4 3827825
eng 4 3097053368
eng 4 6843798
eng 4 3642536
eng 4 6680986
eng 4 28852694
eng 4 158467
eng 4 709270610
eng 4 12496523966
eng 4 3283254
eng 4 5863588935
eng 4 9253523
eng 4 25110931438
eng 4 4227249
eng 4 1924469
eng 4 19030574773
eng 4 11904466510
eng 4 5041977
eng 4 1021545916
eng 4 2283951699
eng 4 2540905983
eng 4 700123365
eng 4 23376879577
eng 4 10044372111
eng 4 422817169
eng 4 26266283
eng 4 15039620
eng 4 26522133604
eng 4 21617433267
eng 4 57353175
eng 4 1309646297
eng 4 1228884
eng 4 3096654696
eng 4 5504481
eng 4 168157631
eng 4 7399384632
eng 4 8499898
eng 4 11047470
eng 4 2031958
eng 4 10024123468
eng 4 1532067
eng 4 2041204
eng 4 297003471935
eng 4 6882285546
eng 4 2178628
eng 4 535032
eng 4 9331633
eng 4 4089706
eng 4 189368235
eng 4 74034227828
eng 4 46337661
eng 4 450271
eng 4 12921686429
eng 4 31198593
eng 4 4410262
eng 4 2289477770
eng 4 30896816
eng 4 4687065170
eng 4 2789194
eng 4 1336730680
eng 4 3441892
eng 4 46181037
eng 4 5320095
eng 4 14592642
eng 4 6556040
eng 4 8340461
eng 4 4086043
eng 4 2652200
eng 4 43240837
eng 4 5578569
eng 4 2585973
eng 4 926258
eng 4 33886996
eng 4 342640620
eng 4 43335286
eng 4 13199480106
eng 4 782495
eng 4 6587134158
eng 4 41677
eng 4 572221037
eng 4 8135292875
eng 4 597702942
eng 4 410757
eng 4 8919451
eng 4 439390
eng 4 4287641
eng 4 397791
eng 4 3014663
eng 4 244490153
eng 4 5498823083
eng 4 1041755
eng 4 142874214
eng 4 1481053
eng 4 6006767946
eng 4 689758
eng 4 671226
eng 4 1865827
eng 4 5598843166
eng 4 624351
eng 4 286003
eng 4 10523749
eng 4 1713526
eng 4 130838383
eng 4 2193776653
eng 4 4066285
eng 4 80198
eng 4 5935452
eng 4 14233271
eng 4 4223625
eng 4 92987180
eng 4 6258562
eng 4 368504
eng 4 4376889
eng 4 4239103
eng 4 819251
eng 4 155148644
eng 4 32084355541
eng 4 2160242
eng 4 4329905
eng 4 2409022
eng 4 25314333867
eng 4 990178
eng 4 1038681
eng 4 42720296079
eng 4 35125123929
eng 4 1515350
eng 4 859293
eng 4 1950515
eng 4 1981241
eng 4 235224345
eng 4 17241555422
eng 4 4536527
eng 4 40045
eng 4 2924533475
eng 4 1505819
eng 4 4129848
eng 4 16174446
eng 4 3262917
eng 4 5625102
eng 4 2362001
eng 4 34559432
eng 4 57050
eng 4 111172153
eng 4 9805541
eng 4 166078
eng 4 970081
eng 4 332162
eng 4 14587108
eng 4 72607
eng 4 421339
eng 4 681001
eng 4 70292231
eng 4 369523
eng 4 110874
eng 4 9930741
eng 4 3016902
eng 4 153816534
eng 4 1069393
eng 4 958331
eng 4 67125
eng 4 635560
eng 4 437915
eng 4 1082711
eng 4 1246184
eng 4 38582576
eng 4 11199
eng 4 61608570
eng 4 5713228
eng 4 192351
eng 4 70280917
eng 4 272516003
eng 4 432760
eng 4 418295
eng 4 512434
eng 4 4640170261
eng 4 275083
eng 4 224869
eng 4 404128
eng 4 267923131
eng 4 94020
eng 4 338679
eng 4 579959
eng 4 1764991
eng 4 56829034
eng 4 11856839594
eng 4 11498932
eng 4 16954
eng 4 1904998
eng 4 1098997
eng 4 1524734
eng 4 43357400
eng 4 10861580
eng 4 482135
eng 4 16051028
eng 4 166585
eng 4 222373
eng 4 21648626
eng 4 48169515
eng 4 686306
eng 4 54164
eng 4 433999
eng 4 279631423
eng 4 65181
eng 4 71526
eng 4 6967051
eng 4 92834775
eng 4 108873
eng 4 41079
eng 4 458607
eng 4 144048
eng 4 28981668
eng 4 161699115
eng 4 579988
eng 4 18000
eng 4 586175
eng 4 483462
eng 4 106601
eng 4 66065960
eng 4 1271060
eng 4 8263053
eng 4 1998268
eng 4 5567361
eng 4 82549
eng 5 216480931
eng 5 243385143
eng 5 220476438
eng 5 224744874
eng 5 218735963
eng 5 285222749
eng 5 203702680
eng 5 227721416
eng 5 200013989
eng 5 290107754
eng 5 21408071406
eng 5 51761891
eng 5 6715623722
eng 5 8685307146
eng 5 39133360284
eng 5 49827493
eng 5 4576682573
eng 5 4569420525
eng 5 122866331
eng 5 948086308
eng 5 5506591
eng 5 25337404
eng 5 17009779378
eng 5 4891715209
eng 5 98470032464
eng 5 15912502
eng 5 5558920481
eng 5 32854573
eng 5 20530400248
eng 5 25513759147
eng 5 13969903484
eng 5 1937499215
eng 5 974602260
eng 5 1265722005
eng 5 122579587
eng 5 26358926
eng 5 17183733
eng 5 160432984
eng 5 5619029824
eng 5 2505185
eng 5 22597416
eng 5 1372459
eng 5 49058303543
eng 5 752675
eng 5 393374
eng 5 11380523
eng 5 1796994455
eng 5 1992285
eng 5 524457
eng 5 1964253972
eng 5 1551232
eng 5 193005691
eng 5 6907349015
eng 5 1439849
eng 5 28514
eng 5 5321932921
eng 5 3767427
eng 5 2208256
eng 5 14659056102
eng 5 1955688
eng 5 338185
eng 5 56412630
eng 5 16293075117
eng 5 109977
eng 5 218889432
eng 5 19308475460
eng 5 4179620
eng 5 11689332
eng 5 13916058
eng 5 3732239123
eng 5 10898507
eng 5 1428440
eng 5 10733807973
eng 5 2293550074
eng 5 1477047
eng 5 524210
eng 5 4678392814
eng 5 35422197
eng 5 278337844
eng 5 43660095339
eng 5 6168602
eng 5 242593
eng 5 3502690785
eng 5 5927225
eng 5 9287381
eng 5 2295838928
eng 5 5163472
eng 5 982859
eng 5 37339299
eng 5 185416042
eng 5 18602838
eng 5 154043275
eng 5 4927236473
eng 5 3622374
eng 5 34288549
eng 5 8337669
eng 5 18826583596
eng 5 1860247
eng 5 1049116
eng 5 6426737
eng 5 15901150583
eng 5 2616925
eng 5 601405
eng 5 9019680
eng 5 2697079
eng 5 195569499
eng 5 10607571255
eng 5 1723938
eng 5 162412
eng 5 2821547658
eng 5 4559724
eng 5 2314334
eng 5 3375960663
eng 5 35887257
eng 5 128870373
eng 5 39032909
eng 5 162382893
eng 5 610213
eng 5 124408611
eng 5 4631689209
eng 5 18442721
eng 5 919171385
eng 5 1572414176
eng 5 14139597
eng 5 2069440904
eng 5 299459305
eng 5 7452652
eng 5 1251492578
eng 5 13489250
eng 5 5849461
eng 5 2296227716
eng 5 2152843496
eng 5 8363811025
eng 5 6704773
eng 5 221506799
eng 5 1158984682
eng 5 529531513
eng 5 2628698536
eng 5 583871857
eng 5 473137890
eng 5 7119598001
eng 5 7233654
eng 5 11738218288
eng 5 832705110
eng 5 8848986
eng 5 115246361
eng 5 9599564873
eng 5 3849768
eng 5 3228764
eng 5 3903996
eng 5 5487831499
eng 5 1251307
eng 5 821390
eng 5 1101094
eng 5 10113437644
eng 5 1005100
eng 5 182141
eng 5 2023547562
eng 5 1649313
eng 5 125304284
eng 5 33006126272
eng 5 401601
eng 5 16171
eng 5 16545493725
eng 5 2649351
eng 5 29889309
eng 5 3291914201
eng 5 230492
eng 5 508068
eng 5 11462599
eng 5 2754592
eng 5 83084
eng 5 80629361
eng 5 2421276768
eng 5 732632
eng 5 2162886
eng 5 6663034
eng 5 4773499638
eng 5 772896
eng 5 281850
eng 5 56734357
eng 5 3711582299
eng 5 758171
eng 5 426134
eng 5 1043526459
eng 5 3616445
eng 5 145474175
eng 5 8661048800
eng 5 2871990
eng 5 10307
eng 5 8079606773
eng 5 1667596
eng 5 1121654
eng 5 1098745074
eng 5 1430916
eng 5 7283499
eng 5 2786765
eng 5 16920137
eng 5 24152
eng 5 112004565
eng 5 39929501730
eng 5 1332296
eng 5 3429088
eng 5 1584703
eng 5 32969408549
eng 5 623431
eng 5 2736376
eng 5 980124
eng 5 22642070058
eng 5 1437021
eng 5 468749
eng 5 2631837
eng 5 6313097
eng 5 172241573
eng 5 10568880110
eng 5 2230438
eng 5 83176
eng 5 5698609
eng 5 5490348
eng 5 3873479
eng 5 2415289712
eng 5 894640
eng 5 1037639
eng 5 4637909
eng 5 395571397
eng 5 2401335
eng 5 5870188144
eng 5 35237842
eng 5 42110908
eng 5 97552340
eng 5 1404710105
eng 5 104523793
eng 5 6363285659
eng 5 224163319
eng 5 3418675
eng 5 279356229
eng 5 623038
eng 5 1896460
eng 5 738297968
eng 5 5072953141
eng 5 83408420975
eng 5 100821572
eng 5 10007757765
eng 5 3798748
eng 5 600573745
eng 5 36991087265
eng 5 27678462993
eng 5 4249963
eng 5 82029842
eng 5 1532523
eng 5 45333919
eng 5 434400
eng 5 2740371
eng 5 167428721
eng 5 968165254
eng 5 2333145
eng 5 2458837
eng 5 1960871
eng 5 869471986
eng 5 1400953
eng 5 1137923
eng 5 2551661
eng 5 37300010
eng 5 1326000
eng 5 692460
eng 5 1897198
eng 5 2717534
eng 5 273763138
eng 5 1996686002
eng 5 2347070
eng 5 39503
eng 5 43142491
eng 5 2167667
eng 5 1030341
eng 5 3619079943
eng 5 754142
eng 5 1527954
eng 5 1760854
eng 5 279118
eng 5 22038
eng 5 48288633
eng 5 208383007
eng 5 1119720
eng 5 3273243
eng 5 775747
eng 5 1512205784
eng 5 295362
eng 5 12898976
eng 5 31546534
eng 5 2474287455
eng 5 1721434
eng 5 219273
eng 5 29551267
eng 5 15055719
eng 5 4320485714
eng 5 105980249
eng 5 1732063
eng 5 40544655
eng 5 1448935
eng 5 908671
eng 5 44624578
eng 5 1499156
eng 5 4094260
eng 5 2233019
eng 5 8523383
eng 5 17171
eng 5 130716373
eng 5 9872346987
eng 5 8486513
eng 5 1415410
eng 5 3979030
eng 5 10091153156
eng 5 5335285
eng 5 459666
eng 5 2930258
eng 5 12771857041
eng 5 1835078
eng 5 652458
eng 5 60973096
eng 5 1211527
eng 5 154782565
eng 5 9383133700
eng 5 7277512
eng 5 37132
eng 5 1397569
eng 5 2699604
eng 5 49259851
eng 5 471251377
eng 5 7119593
eng 5 355675
eng 5 25136614
eng 5 232395919
eng 5 56743
eng 5 149406144
eng 5 26783458531
eng 5 3209229
eng 5 115332145
eng 5 18803963
eng 5 13565093600
eng 5 2188128
eng 5 30173302
eng 5 3104915
eng 5 7520792593
eng 5 1777997
eng 5 1313875
eng 5 26644893
eng 5 34162672
eng 5 213270607
eng 5 16209997294
eng 5 17484214
eng 5 168965
eng 5 472509336
eng 5 9108420
eng 5 2622546
eng 5 6997796444
eng 5 6417211
eng 5 1115112
eng 5 4866526
eng 5 4018130223
eng 5 341925
eng 5 95997068
eng 5 4651424444
eng 5 2264988
eng 5 14109971
eng 5 6064630
eng 5 10149907082
eng 5 1118683
eng 5 6190334
eng 5 3462261
eng 5 1223139549
eng 5 7768337
eng 5 1841273
eng 5 2063893
eng 5 8060666
eng 5 115471710
eng 5 31958061658
eng 5 4388595
eng 5 90001
eng 5 1391899
eng 5 3787547
eng 5 7369960
eng 5 2499856467
eng 5 605213
eng 5 4434127
eng 5 3832079
eng 5 36970702
eng 5 409210
eng 5 68788535
eng 5 151032208
eng 5 3140642546
eng 5 1776449308
eng 5 103250937
eng 5 35200649
eng 5 111983817234
eng 5 9400323
eng 5 221665569
eng 5 187793106
eng 5 2682789
eng 5 39055272
eng 5 1059071102
eng 5 103728539
eng 5 27107171969
eng 5 10908734
eng 5 3261132608
eng 5 97762
eng 5 14164467045
eng 5 97361048
eng 5 4751768634
eng 5 210917124
eng 5 7362270958
eng 5 2674065801
eng 5 1762434737
eng 5 266701582
eng 5 7908537
eng 5 6145235
eng 5 191164215
eng 5 12962504832
eng 5 2953389
eng 5 6599005
eng 5 2396237
eng 5 10920214209
eng 5 4489266
eng 5 1385407
eng 5 1799065363
eng 5 1727325113
eng 5 1351096
eng 5 947357
eng 5 5732135037
eng 5 20526854
eng 5 235426335
eng 5 11151991082
eng 5 195971094
eng 5 215395
eng 5 24504668863
eng 5 328342154
eng 5 12726327
eng 5 4953502691
eng 5 407117884617
eng 5 5769757
eng 5 755689
eng 5 41640743
eng 5 45261149
eng 5 40787
eng 5 21406405
eng 5 2886591
eng 5 57984
eng 5 291868
eng 5 98253
eng 5 172809
eng 5 28523
eng 5 934
eng 5 5012
eng 5 1330095
eng 5 25979
eng 5 0
eng 5 135706
eng 5 20580
eng 5 18412236
eng 5 129650
eng 5 1018807
eng 5 64982
eng 5 947726
eng 5 135337
eng 5 337657
eng 5 3858308298
eng 5 4084120
eng 5 63936
eng 5 1042575
eng 5 2762
eng 5 2627
eng 5 129118828
eng 5 4866128797
eng 5 2175252
eng 5 3459985
eng 5 2352123
eng 5 33355058968
eng 5 1922693
eng 5 1804518
eng 5 137316765
eng 5 3840623208
eng 5 2295978
eng 5 883512
eng 5 2128642
eng 5 2751890
eng 5 204866822
eng 5 3931815431
eng 5 4764198
eng 5 62333
eng 5 1717152
eng 5 4210099
eng 5 1599165
eng 5 2003933693
eng 5 2304662
eng 5 2455628
eng 5 4621661
eng 5 16471767
eng 5 53681
eng 5 324031243
eng 5 10404677718
eng 5 1703223
eng 5 3549505758
eng 5 5904413
eng 5 18696805229
eng 5 2141622
eng 5 1031716
eng 5 17576237980
eng 5 8552206221
eng 5 3183454
eng 5 598284675
eng 5 1388375165
eng 5 1580080970
eng 5 419007984
eng 5 19032306537
eng 5 6181016168
eng 5 260331465
eng 5 13988595
eng 5 6807069
eng 5 17900844753
eng 5 15014380700
eng 5 36290884
eng 5 810078690
eng 5 542654
eng 5 1974199381
eng 5 3245918
eng 5 94264305
eng 5 6039887841
eng 5 2702997
eng 5 6763666
eng 5 816695
eng 5 6760015170
eng 5 555687
eng 5 1104752
eng 5 306142614636
eng 5 5712025377
eng 5 1233140
eng 5 201649
eng 5 4188693
eng 5 1760204
eng 5 107167906
eng 5 83144393168
eng 5 19549016
eng 5 185599
eng 5 8453657686
eng 5 16499823
eng 5 1147477
eng 5 1619107586
eng 5 12143327
eng 5 3736497920
eng 5 1428477
eng 5 733357649
eng 5 1577160
eng 5 28144232
eng 5 1942556
eng 5 6206481
eng 5 3768380
eng 5 5376860
eng 5 1626875
eng 5 1163291
eng 5 21607372
eng 5 3665255
eng 5 1093724
eng 5 463704
eng 5 17161773
eng 5 169874969
eng 5 21136069
eng 5 10040241191
eng 5 456261
eng 5 5869905135
eng 5 28870
eng 5 317444964
eng 5 6409138301
eng 5 318179042
eng 5 127659
eng 5 3795992
eng 5 221506
eng 5 2218321
eng 5 216877
eng 5 1797377
eng 5 153089836
eng 5 3653524168
eng 5 374065
eng 5 91509057
eng 5 588064
eng 5 4280616880
eng 5 282672
eng 5 282891
eng 5 651384
eng 5 3568261278
eng 5 244314
eng 5 170516
eng 5 4713564
eng 5 750736
eng 5 73327852
eng 5 1399573509
eng 5 1809463
eng 5 23668
eng 5 3404503
eng 5 6500880
eng 5 1815654
eng 5 47788983
eng 5 3645053
eng 5 127209
eng 5 2077698
eng 5 2859086
eng 5 330632
eng 5 92145326
eng 5 33843630224
eng 5 1808780
eng 5 1800279
eng 5 1546435
eng 5 24628727287
eng 5 506194
eng 5 640992
eng 5 43124773260
eng 5 32371259122
eng 5 1023281
eng 5 393289
eng 5 963491
eng 5 1037314
eng 5 147183009
eng 5 15717506450
eng 5 2223913
eng 5 24543
eng 5 2113776671
eng 5 718238
eng 5 1814467
eng 5 8291574
eng 5 908679
eng 5 4047626
eng 5 1332576
eng 5 21165354
eng 5 25630
eng 5 81977328
eng 5 6601109
eng 5 38509
eng 5 347309
eng 5 81015
eng 5 7604458
eng 5 10163
eng 5 261506
eng 5 208872
eng 5 44412267
eng 5 107272
eng 5 25329
eng 5 5483272
eng 5 1159231
eng 5 119119884
eng 5 369470
eng 5 346444
eng 5 13833
eng 5 172044
eng 5 167595
eng 5 366067
eng 5 803403
eng 5 23054783
eng 5 2372
eng 5 37984503
eng 5 2398776
eng 5 69723
eng 5 36346351
eng 5 165745080
eng 5 252894
eng 5 213353
eng 5 182116
eng 5 4073031205
eng 5 113408
eng 5 150481
eng 5 122212
eng 5 148889757
eng 5 20896
eng 5 98243
eng 5 304719
eng 5 861408
eng 5 30248017
eng 5 12065525513
eng 5 5396118
eng 5 6965
eng 5 858559
eng 5 615629
eng 5 645644
eng 5 21568821
eng 5 4793845
eng 5 255250
eng 5 7258124
eng 5 63714
eng 5 84920
eng 5 10741877
eng 5 26510831
eng 5 517660
eng 5 24372
eng 5 153878
eng 5 171186761
eng 5 20022
eng 5 34882
eng 5 3269832
eng 5 50264693
eng 5 44885
eng 5 15557
eng 5 195014
eng 5 75820
eng 5 13842500
eng 5 77438667
eng 5 331573
eng 5 9993
eng 5 210269
eng 5 227862
eng 5 48614
eng 5 32318070
eng 5 609648
eng 5 3958365
eng 5 1286587
eng 5 2366351
eng 5 20825
spa 3 18661732
spa 3 6027120
spa 3 3713077
spa 4 123380
spa 4 133766
spa 4 110017
spa 5 44796
spa 5 41167
spa 5 25526
